%YAML 1.1
%TAG !u! tag:unity3d.com,2011:
--- !u!1045 &1
EditorBuildSettings:
  m_ObjectHideFlags: 0
  serializedVersion: 2
  m_Scenes:
  - enabled: 1
    path: Assets/Scenes/app_intro1.unity
  - enabled: 1
    path: Assets/Scenes/app_intro2.unity
  - enabled: 0
    path: Assets/Scenes/Languages.unity
  - enabled: 0
    path: Assets/Scenes/UI.unity
  - enabled: 0
    path: Assets/Scenes/intro.unity
  - enabled: 1
    path: Assets/Scenes/F1_introCine.unity
  - enabled: 1
    path: Assets/Scenes/F1_Lvl1_BlueSpace.unity
  - enabled: 1
    path: Assets/Scenes/F1_Lvl2_RedSpace.unity
  - enabled: 0
    path: Assets/Scenes/Warzone.unity
  - enabled: 1
    path: Assets/Scenes/Credits.unity
  - enabled: 1
    path: Assets/Scenes/F2_introCine .unity
  - enabled: 1
    path: Assets/Scenes/F1_Lvl3_Desert.unity
