%YAML 1.1
%TAG !u! tag:unity3d.com,2011:
--- !u!74 &7400000
AnimationClip:
  m_ObjectHideFlags: 0
  m_PrefabParentObject: {fileID: 0}
  m_PrefabInternal: {fileID: 0}
  m_Name: PlShip_Idle
  serializedVersion: 6
  m_Legacy: 0
  m_Compressed: 0
  m_UseHighQualityCurve: 1
  m_RotationCurves: []
  m_CompressedRotationCurves: []
  m_EulerCurves: []
  m_PositionCurves: []
  m_ScaleCurves: []
  m_FloatCurves: []
  m_PPtrCurves:
  - curve:
    - time: 0
      value: {fileID: 21300000, guid: 40a8a691bc400654f8172748b238f598, type: 3}
    - time: 0.083333336
      value: {fileID: 21300000, guid: 236da23510985c04eacd6c2e7b77ce0b, type: 3}
    - time: 0.16666667
      value: {fileID: 21300000, guid: a5cad9a22558f7b40941a977baffc20d, type: 3}
    - time: 0.25
      value: {fileID: 21300000, guid: 7f0b6f3d53ba04341aba7c68ffb6a853, type: 3}
    - time: 0.33333334
      value: {fileID: 21300000, guid: e55ea790ce84dcb4aa96bb3d4d1a1e92, type: 3}
    - time: 0.41666666
      value: {fileID: 21300000, guid: 0f33f57dc33bede4784cae772fe8bbbf, type: 3}
    - time: 0.5
      value: {fileID: 21300000, guid: 26537668ba6217447bd1a4a27a457419, type: 3}
    - time: 0.5833333
      value: {fileID: 21300000, guid: 87151a2e59c06994fa28226e403ff3bb, type: 3}
    - time: 0.6666667
      value: {fileID: 21300000, guid: 473d613ff51acab4ead43d09ff18c6cd, type: 3}
    - time: 0.75
      value: {fileID: 21300000, guid: 9ff58cc4d088bb7499652ad1db7e2225, type: 3}
    - time: 0.8333333
      value: {fileID: 21300000, guid: d11468d7b55b6f647846b035ab390404, type: 3}
    - time: 0.9166667
      value: {fileID: 21300000, guid: d96b2740adc16164091bcb2ad55c4ef4, type: 3}
    - time: 1
      value: {fileID: 21300000, guid: 71abe2c432070cc478af9c33ad619105, type: 3}
    - time: 1.0833334
      value: {fileID: 21300000, guid: 8a6646970baf0bf4da5db309d720280f, type: 3}
    - time: 1.1666666
      value: {fileID: 21300000, guid: 5e6be17e692de374c8e44414a3fb7828, type: 3}
    - time: 1.25
      value: {fileID: 21300000, guid: 0fcb03c71591f6043972ec4b7b6a0de8, type: 3}
    - time: 1.3333334
      value: {fileID: 21300000, guid: 39563bf4a870c5544a4be3bad7cfea6b, type: 3}
    - time: 1.4166666
      value: {fileID: 21300000, guid: 963654938ecdb3042902822e6d4bcfb6, type: 3}
    - time: 1.5
      value: {fileID: 21300000, guid: d4ac88051ba1f324194f9149fad676ed, type: 3}
    - time: 1.5833334
      value: {fileID: 21300000, guid: 4c32df89c0d860540be5462656f2e972, type: 3}
    - time: 1.6666666
      value: {fileID: 21300000, guid: 6e688db7e9203fc4589fd112252419ce, type: 3}
    - time: 1.75
      value: {fileID: 21300000, guid: 4e17e2db178c84148b8eb7a3ea1b3ec0, type: 3}
    - time: 1.8333334
      value: {fileID: 21300000, guid: 3ff8473cf4a11754eb19d64f5a712b95, type: 3}
    - time: 1.9166666
      value: {fileID: 21300000, guid: 035a8a06be48cac478a2a7644acb95f9, type: 3}
    attribute: m_Sprite
    path: 
    classID: 212
    script: {fileID: 0}
  m_SampleRate: 12
  m_WrapMode: 0
  m_Bounds:
    m_Center: {x: 0, y: 0, z: 0}
    m_Extent: {x: 0, y: 0, z: 0}
  m_ClipBindingConstant:
    genericBindings:
    - path: 0
      attribute: 0
      script: {fileID: 0}
      classID: 212
      customType: 23
      isPPtrCurve: 1
    pptrCurveMapping:
    - {fileID: 21300000, guid: 40a8a691bc400654f8172748b238f598, type: 3}
    - {fileID: 21300000, guid: 236da23510985c04eacd6c2e7b77ce0b, type: 3}
    - {fileID: 21300000, guid: a5cad9a22558f7b40941a977baffc20d, type: 3}
    - {fileID: 21300000, guid: 7f0b6f3d53ba04341aba7c68ffb6a853, type: 3}
    - {fileID: 21300000, guid: e55ea790ce84dcb4aa96bb3d4d1a1e92, type: 3}
    - {fileID: 21300000, guid: 0f33f57dc33bede4784cae772fe8bbbf, type: 3}
    - {fileID: 21300000, guid: 26537668ba6217447bd1a4a27a457419, type: 3}
    - {fileID: 21300000, guid: 87151a2e59c06994fa28226e403ff3bb, type: 3}
    - {fileID: 21300000, guid: 473d613ff51acab4ead43d09ff18c6cd, type: 3}
    - {fileID: 21300000, guid: 9ff58cc4d088bb7499652ad1db7e2225, type: 3}
    - {fileID: 21300000, guid: d11468d7b55b6f647846b035ab390404, type: 3}
    - {fileID: 21300000, guid: d96b2740adc16164091bcb2ad55c4ef4, type: 3}
    - {fileID: 21300000, guid: 71abe2c432070cc478af9c33ad619105, type: 3}
    - {fileID: 21300000, guid: 8a6646970baf0bf4da5db309d720280f, type: 3}
    - {fileID: 21300000, guid: 5e6be17e692de374c8e44414a3fb7828, type: 3}
    - {fileID: 21300000, guid: 0fcb03c71591f6043972ec4b7b6a0de8, type: 3}
    - {fileID: 21300000, guid: 39563bf4a870c5544a4be3bad7cfea6b, type: 3}
    - {fileID: 21300000, guid: 963654938ecdb3042902822e6d4bcfb6, type: 3}
    - {fileID: 21300000, guid: d4ac88051ba1f324194f9149fad676ed, type: 3}
    - {fileID: 21300000, guid: 4c32df89c0d860540be5462656f2e972, type: 3}
    - {fileID: 21300000, guid: 6e688db7e9203fc4589fd112252419ce, type: 3}
    - {fileID: 21300000, guid: 4e17e2db178c84148b8eb7a3ea1b3ec0, type: 3}
    - {fileID: 21300000, guid: 3ff8473cf4a11754eb19d64f5a712b95, type: 3}
    - {fileID: 21300000, guid: 035a8a06be48cac478a2a7644acb95f9, type: 3}
  m_AnimationClipSettings:
    serializedVersion: 2
    m_AdditiveReferencePoseClip: {fileID: 0}
    m_AdditiveReferencePoseTime: 0
    m_StartTime: 0
    m_StopTime: 2
    m_OrientationOffsetY: 0
    m_Level: 0
    m_CycleOffset: 0
    m_HasAdditiveReferencePose: 0
    m_LoopTime: 1
    m_LoopBlend: 0
    m_LoopBlendOrientation: 0
    m_LoopBlendPositionY: 0
    m_LoopBlendPositionXZ: 0
    m_KeepOriginalOrientation: 0
    m_KeepOriginalPositionY: 1
    m_KeepOriginalPositionXZ: 0
    m_HeightFromFeet: 0
    m_Mirror: 0
  m_EditorCurves: []
  m_EulerEditorCurves: []
  m_HasGenericRootTransform: 0
  m_HasMotionFloatCurves: 0
  m_GenerateMotionCurves: 0
  m_Events: []
